<svg xmlns="http://www.w3.org/2000/svg" width="54" height="53" viewBox="0 0 54 53">
  <metadata><?xpacket begin="﻿" id="W5M0MpCehiHzreSzNTczkc9d"?>
<x:xmpmeta xmlns:x="adobe:ns:meta/" x:xmptk="Adobe XMP Core 5.6-c142 79.160924, 2017/07/13-01:06:39        ">
   <rdf:RDF xmlns:rdf="http://www.w3.org/1999/02/22-rdf-syntax-ns#">
      <rdf:Description rdf:about=""/>
   </rdf:RDF>
</x:xmpmeta>
                                                                                                    
                                                                                                    
                                                                                                    
                                                                                                    
                                                                                                    
                                                                                                    
                                                                                                    
                                                                                                    
                                                                                                    
                                                                                                    
                                                                                                    
                                                                                                    
                                                                                                    
                                                                                                    
                                                                                                    
                                                                                                    
                                                                                                    
                                                                                                    
                                                                                                    
                                                                                                    
                           
<?xpacket end="w"?></metadata>
<defs>
    <style>
      .cls-1 {
        fill: #fff;
        fill-rule: evenodd;
      }
    </style>
  </defs>
  <path id="exchange" class="cls-1" d="M3451.51,914a0.879,0.879,0,0,0,.88-0.883v-5.3h15.94a0.88,0.88,0,0,0,.88-0.884v-9.716a0.879,0.879,0,0,0-.88-0.883h-15.94v-5.3a0.879,0.879,0,0,0-.88-0.883,0.892,0.892,0,0,0-.63.259l-10.62,10.6a0.872,0.872,0,0,0-.02,1.225l10.62,11.482A0.885,0.885,0,0,0,3451.51,914Zm-0.89-3.143-8.51-9.2,8.51-8.491v4.05a0.888,0.888,0,0,0,.89.884h15.93v7.949h-15.93a0.888,0.888,0,0,0-.89.883v3.924Zm42.17-38.174L3478.62,861.2a0.881,0.881,0,0,0-1.24.13,0.87,0.87,0,0,0-.2.556v5.3h-12.39a0.887,0.887,0,0,0-.89.883v9.716a0.887,0.887,0,0,0,.89.883h12.39v5.3a0.887,0.887,0,0,0,.89.883,0.906,0.906,0,0,0,.53-0.176l14.16-10.6a0.887,0.887,0,0,0,.18-1.237,2.027,2.027,0,0,0-.15-0.155h0Zm-13.84,9.518v-4.416a0.885,0.885,0,0,0-.88-0.883h-12.4v-7.95h12.4a0.885,0.885,0,0,0,.88-0.883v-4.328l11.84,9.6Zm-23.9-15.015h7.08v1.766h-7.08v-1.766Zm-3.54,0h1.77v1.766h-1.77v-1.766Zm-7.97,5.3h6.2v1.767h-6.2v-1.767Zm15.05,4.417h3.54v1.766h-3.54V876.9Zm-8.85,0h5.31v1.766h-5.31V876.9Zm-3.54,0h1.77v1.766h-1.77V876.9Zm-3.54,0h1.77v1.766h-1.77V876.9Zm11.51-4.417h1.77v1.767h-1.77v-1.767Zm3.54,0h4.42v1.767h-4.42v-1.767Zm-17.71,0h1.77v1.767H3440v-1.767Zm30.98,23.849h8.86V898.1h-8.86v-1.767Zm10.63,0h1.77V898.1h-1.77v-1.767Zm1.77,5.3h6.19V903.4h-6.19v-1.766Zm-12.4,4.416h1.77v1.767h-1.77V906.05Zm9.74,0h5.31v1.767h-5.31V906.05Zm7.08,0h1.77v1.767h-1.77V906.05Zm4.43,0H3494v1.767h-1.77V906.05Zm-14.16-4.416h1.77V903.4h-1.77v-1.766Zm-7.09,0h5.32V903.4h-5.32v-1.766Zm20.36,0h1.77V903.4h-1.77v-1.766Zm-16.81,4.416h1.77v1.767h-1.77V906.05Zm13.27-9.716h5.31V898.1h-5.31v-1.767Zm-46.91-29.148h5.31v1.766h-5.31v-1.766Z" transform="translate(-3440 -861)"/>
</svg>
